   0.0000000e+00   0.0000000e+00   0.0000000e+00   0.0000000e+00   0.0000000e+00
   2.0000000e-02  -2.7141214e-03   5.4374467e-03  -2.9729047e-01   5.9537006e-01
   4.0000000e-02  -1.0385332e-02   2.0815956e-02  -5.4562965e-01   1.0935750e+00
   6.0000000e-02  -2.2306900e-02   4.4734781e-02  -7.4711212e-01   1.4987882e+00
   8.0000000e-02  -3.7772097e-02   7.5793175e-02  -9.0383246e-01   1.8151833e+00
   1.0000000e-01  -5.6074189e-02   1.1259039e-01  -1.0178852e+00   2.0469338e+00
   1.2000000e-01  -7.6506448e-02   1.5372568e-01  -1.0913650e+00   2.1982131e+00
   1.4000000e-01  -9.8362142e-02   1.9779830e-01  -1.1263664e+00   2.2731949e+00
   1.6000000e-01  -1.2093454e-01   2.4340751e-01  -1.1249840e+00   2.2760526e+00
   1.8000000e-01  -1.4351691e-01   2.8915255e-01  -1.0893123e+00   2.2109597e+00
   2.0000000e-01  -1.6540253e-01   3.3363268e-01  -1.0214459e+00   2.0820897e+00
   2.2000000e-01  -1.8588465e-01   3.7544715e-01  -9.2347948e-01   1.8936162e+00
   2.4000000e-01  -2.0425656e-01   4.1319522e-01  -7.9750751e-01   1.6497127e+00
   2.6000000e-01  -2.1981152e-01   4.4547614e-01  -6.4562460e-01   1.3545526e+00
   2.8000000e-01  -2.3184280e-01   4.7088915e-01  -4.6992532e-01   1.0123095e+00
   3.0000000e-01  -2.3964367e-01   4.8803353e-01  -2.7250426e-01   6.2715693e-01
   3.2000000e-01  -2.4172332e-01   4.9394473e-01  -4.8697599e-02   1.8896483e-01
   3.4000000e-01  -2.3732242e-01   4.8709099e-01   2.0272044e-01  -3.0556306e-01
   3.6000000e-01  -2.2683145e-01   4.6822073e-01   4.7449825e-01  -8.4200269e-01
   3.8000000e-01  -2.1064091e-01   4.3808236e-01   7.5938421e-01  -1.4059300e+00
   4.0000000e-01  -1.8914126e-01   3.9742429e-01   1.0501267e+00  -1.9829208e+00
   4.2000000e-01  -1.6272299e-01   3.4699493e-01   1.3394741e+00  -2.5585512e+00
   4.4000000e-01  -1.3177658e-01   2.8754271e-01   1.6201749e+00  -3.1183970e+00
   4.6000000e-01  -9.6692518e-02   2.1981603e-01   1.8849773e+00  -3.6480341e+00
   4.8000000e-01  -5.7861283e-02   1.4456331e-01   2.1266298e+00  -4.1330386e+00
   5.0000000e-01  -1.5673358e-02   6.2532960e-02   2.3378808e+00  -4.5589862e+00
   5.2000000e-01   2.9480775e-02  -2.5526605e-02   2.5114786e+00  -4.9114530e+00
   5.4000000e-01   7.7210635e-02  -1.1886697e-01   2.6401717e+00  -5.1760148e+00
   5.6000000e-01   1.2712574e-01  -2.1673973e-01   2.7167084e+00  -5.3382477e+00
   5.8000000e-01   1.7883560e-01  -3.1839646e-01   2.7338371e+00  -5.3837274e+00
   6.0000000e-01   2.3194975e-01  -4.2308875e-01   2.6843062e+00  -5.2980301e+00
   6.2000000e-01   2.8435504e-01  -5.2671881e-01   2.5866288e+00  -5.1193921e+00
   6.4000000e-01   3.3406976e-01  -6.2544832e-01   2.4655599e+00  -4.8981896e+00
   6.6000000e-01   3.8090049e-01  -7.1891806e-01   2.3232105e+00  -4.6382078e+00
   6.8000000e-01   4.2465383e-01  -8.0676883e-01   2.1616916e+00  -4.3432321e+00
   7.0000000e-01   4.6513639e-01  -8.8864142e-01   1.9831142e+00  -4.0170476e+00
   7.2000000e-01   5.0215476e-01  -9.6417663e-01   1.7895893e+00  -3.6634396e+00
   7.4000000e-01   5.3551555e-01  -1.0330152e+00   1.5832278e+00  -3.2861933e+00
   7.6000000e-01   5.6502535e-01  -1.0947980e+00   1.3661408e+00  -2.8890940e+00
   7.8000000e-01   5.9049077e-01  -1.1491658e+00   1.1404394e+00  -2.4759269e+00
   8.0000000e-01   6.1171840e-01  -1.1957594e+00   9.0823439e-01  -2.0504772e+00
   8.2000000e-01   6.2851485e-01  -1.2342196e+00   6.7163692e-01  -1.6165303e+00
   8.4000000e-01   6.4068671e-01  -1.2641871e+00   4.3275794e-01  -1.1778712e+00
   8.6000000e-01   6.4804058e-01  -1.2853027e+00   1.9370848e-01  -7.3828543e-01
   8.8000000e-01   6.5038307e-01  -1.2972074e+00  -4.3400483e-02  -3.0155803e-01
   9.0000000e-01   6.4752077e-01  -1.2995417e+00  -2.7645793e-01   1.2852568e-01
   9.2000000e-01   6.3355469e-01  -1.2802514e+00  -5.9518379e-01   7.3620389e-01
   9.4000000e-01   6.0359561e-01  -1.2292342e+00  -1.0681139e+00   1.6623968e+00
   9.6000000e-01   5.5896477e-01  -1.1490586e+00  -1.6613610e+00   2.8383425e+00
   9.8000000e-01   5.0098343e-01  -1.0422937e+00  -2.3410379e+00   4.1952787e+00
   1.0000000e+00   4.3097283e-01  -9.1150803e-01  -3.0732575e+00   5.6644435e+00
   1.0200000e+00   3.5025423e-01  -7.5927047e-01  -3.8241326e+00   7.1770748e+00
   1.0400000e+00   2.6014886e-01  -5.8814977e-01  -4.5597760e+00   8.6644104e+00
   1.0600000e+00   1.6197800e-01  -4.0071472e-01  -5.2463005e+00   1.0057688e+01
   1.0800000e+00   5.7062870e-02  -1.9953408e-01  -5.8498189e+00   1.1288147e+01
   1.1000000e+00  -5.3275263e-02   1.2823369e-02  -6.3364440e+00   1.2287023e+01
   1.1200000e+00  -1.6771515e-01   2.3378886e-01  -6.6722887e+00   1.2985556e+01
   1.1400000e+00  -2.8493555e-01   4.6079361e-01  -6.8234658e+00   1.3314982e+01
   1.1600000e+00  -4.0361521e-01   6.9126885e-01  -6.7560880e+00   1.3206541e+01
   1.1800000e+00  -5.2243287e-01   9.2264581e-01  -6.4362682e+00   1.2591469e+01
   1.2000000e+00  -6.4006730e-01   1.1523557e+00  -5.8301193e+00   1.1401006e+01
   1.2200000e+00  -7.5082776e-01   1.3693824e+00  -5.1154937e+00   1.0012297e+01
   1.2400000e+00  -8.5027931e-01   1.5655102e+00  -4.4868962e+00   8.8350137e+00
   1.2600000e+00  -9.3898434e-01   1.7423706e+00  -3.9354176e+00   7.8491807e+00
   1.2800000e+00  -1.0175052e+00   1.9015952e+00  -3.4521491e+00   7.0348219e+00
   1.3000000e+00  -1.0864044e+00   2.0448159e+00  -3.0281815e+00   6.3719612e+00
   1.3200000e+00  -1.1462441e+00   2.1736642e+00  -2.6546059e+00   5.8406229e+00
   1.3400000e+00  -1.1975869e+00   2.2897717e+00  -2.3225132e+00   5.4208311e+00
   1.3600000e+00  -1.2409951e+00   2.3947701e+00  -2.0229944e+00   5.0926098e+00
   1.3800000e+00  -1.2770311e+00   2.4902911e+00  -1.7471405e+00   4.8359832e+00
   1.4000000e+00  -1.3062573e+00   2.5779663e+00  -1.4860424e+00   4.6309753e+00
   1.4200000e+00  -1.3292361e+00   2.6594274e+00  -1.2307913e+00   4.4576103e+00
   1.4400000e+00  -1.3465299e+00   2.7363061e+00  -9.7247797e-01   4.2959124e+00
   1.4600000e+00  -1.3587010e+00   2.8102339e+00  -7.0219347e-01   4.1259055e+00
   1.4800000e+00  -1.3663118e+00   2.8828425e+00  -4.1102878e-01   3.9276138e+00
   1.5000000e+00  -1.3699248e+00   2.9557636e+00  -9.0074869e-02   3.6810615e+00
   1.5200000e+00  -1.3688594e+00   3.0265195e+00   2.3705865e-01   3.4032341e+00
   1.5400000e+00  -1.3621130e+00   3.0915836e+00   5.4262967e-01   3.1247959e+00
   1.5600000e+00  -1.3497643e+00   3.1510140e+00   8.2934848e-01   2.8462889e+00
   1.5800000e+00  -1.3318924e+00   3.2048692e+00   1.0999253e+00   2.5682551e+00
   1.6000000e+00  -1.3085762e+00   3.2532072e+00   1.3570705e+00   2.2912365e+00
   1.6200000e+00  -1.2798945e+00   3.2960864e+00   1.6034943e+00   2.0157751e+00
   1.6400000e+00  -1.2459262e+00   3.3335649e+00   1.8419069e+00   1.7424128e+00
   1.6600000e+00  -1.2067504e+00   3.3657011e+00   2.0750186e+00   1.4716918e+00
   1.6800000e+00  -1.1624459e+00   3.3925532e+00   2.3055397e+00   1.2041539e+00
   1.7000000e+00  -1.1130916e+00   3.4141794e+00   2.5361805e+00   9.4034122e-01
   1.7200000e+00  -1.0587664e+00   3.4306379e+00   2.7696513e+00   6.8079570e-01
   1.7400000e+00  -9.9954929e-01   3.4419871e+00   3.0086622e+00   4.2605935e-01
   1.7600000e+00  -9.3551913e-01   3.4482851e+00   3.2559236e+00   1.7667416e-01
   1.7800000e+00  -8.6675486e-01   3.4495902e+00   3.5141457e+00  -6.6817860e-02
   1.8000000e+00  -7.9333538e-01   3.4459606e+00   3.7860389e+00  -3.0387472e-01
   1.8200000e+00  -7.1421901e-01   3.4379055e+00   4.0638949e+00  -5.2575457e-01
   1.8400000e+00  -6.2871574e-01   3.4260454e+00   4.3357085e+00  -7.2521959e-01
   1.8600000e+00  -5.3743199e-01   3.4106059e+00   4.5977447e+00  -9.0398380e-01
   1.8800000e+00  -4.4097416e-01   3.3918124e+00   4.8462683e+00  -1.0637612e+00
   1.9000000e+00  -3.3994866e-01   3.3698903e+00   5.0775443e+00  -1.2062660e+00
   1.9200000e+00  -2.3496192e-01   3.3450652e+00   5.2878374e+00  -1.3332120e+00
   1.9400000e+00  -1.2662034e-01   3.3175626e+00   5.4734126e+00  -1.4463133e+00
   1.9600000e+00  -1.5530332e-02   3.2876078e+00   5.6305346e+00  -1.5472840e+00
   1.9800000e+00   9.7701686e-02   3.2554264e+00   5.7554685e+00  -1.6378381e+00
   2.0000000e+00   2.1246930e-01   3.2212439e+00   5.8444791e+00  -1.7196896e+00
   2.0200000e+00   3.2816611e-01   3.1852856e+00   5.8938313e+00  -1.7945526e+00
   2.0400000e+00   4.4418569e-01   3.1477772e+00   5.8997898e+00  -1.8641410e+00
   2.0600000e+00   5.5992163e-01   3.1089440e+00   5.8586197e+00  -1.9301690e+00
   2.0800000e+00   6.7476752e-01   3.0690115e+00   5.7665857e+00  -1.9943506e+00
   2.1000000e+00   7.8811694e-01   3.0282053e+00   5.6199528e+00  -2.0583997e+00
   2.1200000e+00   8.9802173e-01   2.9864370e+00   5.4319126e+00  -2.1203290e+00
   2.1400000e+00   1.0029785e+00   2.9435219e+00   5.2208230e+00  -2.1771213e+00
   2.1600000e+00   1.1030482e+00   2.8995406e+00   4.9906980e+00  -2.2289460e+00
   2.1800000e+00   1.1982916e+00   2.8545740e+00   4.7455516e+00  -2.2759728e+00
   2.2000000e+00   1.2887695e+00   2.8087026e+00   4.4893978e+00  -2.3183711e+00
   2.2200000e+00   1.3745428e+00   2.7620073e+00   4.2262508e+00  -2.3563104e+00
   2.2400000e+00   1.4556722e+00   2.7145687e+00   3.9601244e+00  -2.3899602e+00
   2.2600000e+00   1.5322187e+00   2.6664674e+00   3.6950328e+00  -2.4194900e+00
   2.2800000e+00   1.6042431e+00   2.6177843e+00   3.4349900e+00  -2.4450693e+00
   2.3000000e+00   1.6718062e+00   2.5686000e+00   3.1840100e+00  -2.4668676e+00
   2.3200000e+00   1.7349688e+00   2.5189953e+00   2.9461069e+00  -2.4850545e+00
   2.3400000e+00   1.7937918e+00   2.4690507e+00   2.7252947e+00  -2.4997993e+00
   2.3600000e+00   1.8483360e+00   2.4188471e+00   2.5255873e+00  -2.5112716e+00
   2.3800000e+00   1.8986623e+00   2.3684652e+00   2.3509990e+00  -2.5196410e+00
   2.4000000e+00   1.9448314e+00   2.3179856e+00   2.2055436e+00  -2.5250768e+00
   2.4200000e+00   1.9878209e+00   2.2674841e+00   2.0824869e+00  -2.5281639e+00
   2.4400000e+00   2.0286644e+00   2.2169880e+00   1.9718856e+00  -2.5295129e+00
   2.4600000e+00   2.0675070e+00   2.1665048e+00   1.8729401e+00  -2.5293321e+00
   2.4800000e+00   2.1044940e+00   2.1160422e+00   1.7848506e+00  -2.5278298e+00
   2.5000000e+00   2.1397704e+00   2.0656080e+00   1.7068176e+00  -2.5252144e+00
   2.5200000e+00   2.1734814e+00   2.0152098e+00   1.6380415e+00  -2.5216942e+00
   2.5400000e+00   2.2057722e+00   1.9648553e+00   1.5777227e+00  -2.5174777e+00
   2.5600000e+00   2.2367880e+00   1.9145522e+00   1.5250614e+00  -2.5127730e+00
   2.5800000e+00   2.2666738e+00   1.8643081e+00   1.4792582e+00  -2.5077886e+00
   2.6000000e+00   2.2955749e+00   1.8141307e+00   1.4395133e+00  -2.5027328e+00
   2.6200000e+00   2.3236364e+00   1.7640277e+00   1.4050272e+00  -2.4978140e+00
   2.6400000e+00   2.3510034e+00   1.7140068e+00   1.3750002e+00  -2.4932405e+00
   2.6600000e+00   2.3778212e+00   1.6640756e+00   1.3486327e+00  -2.4892206e+00
   2.6800000e+00   2.4042348e+00   1.6142419e+00   1.3251252e+00  -2.4859627e+00
   2.7000000e+00   2.4303895e+00   1.5645133e+00   1.3036778e+00  -2.4836751e+00
   2.7200000e+00   2.4563194e+00   1.5147886e+00   1.2839707e+00  -2.4817715e+00
   2.7400000e+00   2.4819548e+00   1.4650068e+00   1.2659859e+00  -2.4792431e+00
   2.7600000e+00   2.5072853e+00   1.4152357e+00   1.2493772e+00  -2.4756641e+00
   2.7800000e+00   2.5323003e+00   1.3655431e+00   1.2337985e+00  -2.4706089e+00
   2.8000000e+00   2.5569891e+00   1.3159969e+00   1.2189035e+00  -2.4636518e+00
   2.8200000e+00   2.5813414e+00   1.2666649e+00   1.2043462e+00  -2.4543671e+00
   2.8400000e+00   2.6053464e+00   1.2176150e+00   1.1897802e+00  -2.4423291e+00
   2.8600000e+00   2.6289937e+00   1.1689149e+00   1.1748594e+00  -2.4271122e+00
   2.8800000e+00   2.6522726e+00   1.1206326e+00   1.1592377e+00  -2.4082907e+00
   2.9000000e+00   2.6751727e+00   1.0728358e+00   1.1425688e+00  -2.3854388e+00
   2.9200000e+00   2.6976834e+00   1.0255924e+00   1.1245065e+00  -2.3581310e+00
   2.9400000e+00   2.7197941e+00   9.7897017e-01   1.1047046e+00  -2.3259415e+00
   2.9600000e+00   2.7414942e+00   9.3303704e-01   1.0828170e+00  -2.2884447e+00
   2.9800000e+00   2.7627732e+00   8.8786080e-01   1.0584975e+00  -2.2452149e+00
   3.0000000e+00   2.7836205e+00   8.4350930e-01   1.0313998e+00  -2.1958264e+00
   3.0200000e+00   2.8039778e+00   8.0009772e-01   1.0027332e+00  -2.1427131e+00
   3.0400000e+00   2.8237826e+00   7.5772379e-01   9.7387351e-01  -2.0884928e+00
   3.0600000e+00   2.8430186e+00   7.1642912e-01   9.4472500e-01  -2.0330156e+00
   3.0800000e+00   2.8616696e+00   6.7625531e-01   9.1519177e-01  -1.9761320e+00
   3.1000000e+00   2.8797193e+00   6.3724397e-01   8.8517799e-01  -1.9176921e+00
   3.1200000e+00   2.8971512e+00   5.9943670e-01   8.5458778e-01  -1.8575461e+00
   3.1400000e+00   2.9139491e+00   5.6287513e-01   8.2332529e-01  -1.7955444e+00
   3.1600000e+00   2.9300967e+00   5.2760084e-01   7.9129468e-01  -1.7315372e+00
   3.1800000e+00   2.9455776e+00   4.9365546e-01   7.5840007e-01  -1.6653747e+00
   3.2000000e+00   2.9603755e+00   4.6108059e-01   7.2454562e-01  -1.5969072e+00
   3.2200000e+00   2.9744741e+00   4.2991783e-01   6.8963546e-01  -1.5259849e+00
   3.2400000e+00   2.9878570e+00   4.0020880e-01   6.5357375e-01  -1.4524582e+00
   3.2600000e+00   3.0005081e+00   3.7199510e-01   6.1626463e-01  -1.3761771e+00
   3.2800000e+00   3.0124108e+00   3.4531835e-01   5.7761223e-01  -1.2969920e+00
   3.3000000e+00   3.0235490e+00   3.2022014e-01   5.3752071e-01  -1.2147532e+00
   3.3200000e+00   3.0339433e+00   2.9666130e-01   4.9831977e-01  -1.1341406e+00
   3.3400000e+00   3.0436451e+00   2.7453655e-01   4.6223425e-01  -1.0596056e+00
   3.3600000e+00   3.0526838e+00   2.5378837e-01   4.2901100e-01  -9.9065582e-01
   3.3800000e+00   3.0610888e+00   2.3435923e-01   3.9839686e-01  -9.2679867e-01
   3.4000000e+00   3.0688894e+00   2.1619161e-01   3.7013868e-01  -8.6754167e-01
   3.4200000e+00   3.0761151e+00   1.9922797e-01   3.4398332e-01  -8.1239230e-01
   3.4400000e+00   3.0827952e+00   1.8341078e-01   3.1967762e-01  -7.6085806e-01
   3.4600000e+00   3.0889592e+00   1.6868253e-01   2.9696843e-01  -7.1244642e-01
   3.4800000e+00   3.0946365e+00   1.5498569e-01   2.7560260e-01  -6.6666489e-01
   3.5000000e+00   3.0998564e+00   1.4226272e-01   2.5532697e-01  -6.2302096e-01
   3.5200000e+00   3.1046484e+00   1.3045610e-01   2.3588840e-01  -5.8102211e-01
   3.5400000e+00   3.1090419e+00   1.1950830e-01   2.1703374e-01  -5.4017584e-01
   3.5600000e+00   3.1130662e+00   1.0936180e-01   1.9850982e-01  -4.9998963e-01
   3.5800000e+00   3.1167507e+00   9.9959065e-02   1.8006351e-01  -4.5997098e-01
   3.6000000e+00   3.1201249e+00   9.1242573e-02   1.6144165e-01  -4.1962737e-01
   3.6200000e+00   3.1231982e+00   8.3192369e-02   1.4367293e-01  -3.8102519e-01
   3.6400000e+00   3.1259728e+00   7.5801241e-02   1.2785074e-01  -3.4635307e-01
   3.6600000e+00   3.1284673e+00   6.9030770e-02   1.1381897e-01  -3.1530193e-01
   3.6800000e+00   3.1307003e+00   6.2842536e-02   1.0142149e-01  -2.8756266e-01
   3.7000000e+00   3.1326906e+00   5.7198120e-02   9.0502186e-02  -2.6282618e-01
   3.7200000e+00   3.1344567e+00   5.2059103e-02   8.0904954e-02  -2.4078339e-01
   3.7400000e+00   3.1360173e+00   4.7387067e-02   7.2473674e-02  -2.2112519e-01
   3.7600000e+00   3.1373910e+00   4.3143592e-02   6.5052229e-02  -2.0354249e-01
   3.7800000e+00   3.1385965e+00   3.9290258e-02   5.8484506e-02  -1.8772620e-01
   3.8000000e+00   3.1396523e+00   3.5788648e-02   5.2614389e-02  -1.7336721e-01
   3.8200000e+00   3.1405772e+00   3.2600343e-02   4.7285763e-02  -1.6015645e-01
   3.8400000e+00   3.1413897e+00   2.9686922e-02   4.2342513e-02  -1.4778480e-01
   3.8600000e+00   3.1421085e+00   2.7009967e-02   3.7628523e-02  -1.3594318e-01
   3.8800000e+00   3.1427522e+00   2.4531058e-02   3.2987678e-02  -1.2432249e-01
   3.9000000e+00   3.1433395e+00   2.2211778e-02   2.8263864e-02  -1.1261364e-01
   3.9200000e+00   3.1438656e+00   2.0059643e-02   2.3737127e-02  -1.0137394e-01
   3.9400000e+00   3.1443170e+00   1.8099710e-02   1.9762797e-02  -9.1308470e-02
   3.9600000e+00   3.1446991e+00   1.6319867e-02   1.6297683e-02  -8.2329737e-02
   3.9800000e+00   3.1450174e+00   1.4708003e-02   1.3298594e-02  -7.4350261e-02
   4.0000000e+00   3.1452772e+00   1.3252004e-02   1.0722336e-02  -6.7282560e-02
   4.0200000e+00   3.1454841e+00   1.1939761e-02   8.5257201e-03  -6.1039151e-02
   4.0400000e+00   3.1456434e+00   1.0759161e-02   6.6655532e-03  -5.5532551e-02
   4.0600000e+00   3.1457606e+00   9.6980917e-03   5.0986441e-03  -5.0675278e-02
   4.0800000e+00   3.1458411e+00   8.7444423e-03   3.7818011e-03  -4.6379851e-02
   4.1000000e+00   3.1458903e+00   7.8861009e-03   2.6718327e-03  -4.2558785e-02
   4.1200000e+00   3.1459138e+00   7.1109558e-03   1.7255473e-03  -3.9124599e-02
   4.1400000e+00   3.1459168e+00   6.4068951e-03   8.9975325e-04  -3.5989810e-02
   4.1600000e+00   3.1459049e+00   5.7618072e-03   1.5125900e-04  -3.3066936e-02
   4.1800000e+00   3.1458835e+00   5.1635803e-03  -5.6312707e-04  -3.0268494e-02
   4.2000000e+00   3.1458580e+00   4.6001029e-03  -1.2865965e-03  -2.7507002e-02
   4.2200000e+00   3.1458266e+00   4.0737203e-03  -1.9708079e-03  -2.4876481e-02
   4.2400000e+00   3.1457847e+00   3.5928390e-03  -2.5442987e-03  -2.2516969e-02
   4.2600000e+00   3.1457333e+00   3.1544383e-03  -3.0155790e-03  -2.0410007e-02
   4.2800000e+00   3.1456736e+00   2.7554974e-03  -3.3931589e-03  -1.8537139e-02
   4.3000000e+00   3.1456067e+00   2.3929958e-03  -3.6855486e-03  -1.6879905e-02
   4.3200000e+00   3.1455337e+00   2.0639128e-03  -3.9012582e-03  -1.5419849e-02
   4.3400000e+00   3.1454556e+00   1.7652278e-03  -4.0487978e-03  -1.4138513e-02
   4.3600000e+00   3.1453737e+00   1.4939200e-03  -4.1366775e-03  -1.3017438e-02
   4.3800000e+00   3.1452889e+00   1.2469688e-03  -4.1734074e-03  -1.2038168e-02
   4.4000000e+00   3.1452025e+00   1.0213536e-03  -4.1674976e-03  -1.1182243e-02
   4.4200000e+00   3.1451155e+00   8.1405368e-04  -4.1274583e-03  -1.0431207e-02
   4.4400000e+00   3.1450290e+00   6.2204841e-04  -4.0617996e-03  -9.7666019e-03
   4.4600000e+00   3.1449442e+00   4.4231713e-04  -3.9790315e-03  -9.1699695e-03
   4.4800000e+00   3.1448621e+00   2.7183917e-04  -3.8876643e-03  -8.6228522e-03
   4.5000000e+00   3.1447839e+00   1.0759388e-04  -3.7962080e-03  -8.1067921e-03
   4.5200000e+00   3.1447090e+00  -4.9975605e-05  -3.7023918e-03  -7.6248233e-03
   4.5400000e+00   3.1446362e+00  -1.9887537e-04  -3.5986344e-03  -7.1909167e-03
   4.5600000e+00   3.1445656e+00  -3.3979992e-04  -3.4854799e-03  -6.8030206e-03
   4.5800000e+00   3.1444974e+00  -4.7344376e-04  -3.3634724e-03  -6.4590829e-03
   4.6000000e+00   3.1444317e+00  -6.0050136e-04  -3.2331560e-03  -6.1570518e-03
   4.6200000e+00   3.1443686e+00  -7.2166725e-04  -3.0950750e-03  -5.8948754e-03
   4.6400000e+00   3.1443082e+00  -8.3763591e-04  -2.9497735e-03  -5.6705018e-03
   4.6600000e+00   3.1442507e+00  -9.4910184e-04  -2.7977956e-03  -5.4818790e-03
   4.6800000e+00   3.1441962e+00  -1.0567595e-03  -2.6396855e-03  -5.3269552e-03
   4.7000000e+00   3.1441449e+00  -1.1613035e-03  -2.4759873e-03  -5.2036785e-03
   4.7200000e+00   3.1440968e+00  -1.2634283e-03  -2.3072452e-03  -5.1099969e-03
   4.7400000e+00   3.1440521e+00  -1.3638283e-03  -2.1340033e-03  -5.0438585e-03
   4.7600000e+00   3.1440109e+00  -1.4631980e-03  -1.9568058e-03  -5.0032115e-03
   4.7800000e+00   3.1439733e+00  -1.5622321e-03  -1.7761967e-03  -4.9860039e-03
   4.8000000e+00   3.1439396e+00  -1.6616249e-03  -1.5927204e-03  -4.9901838e-03
   4.8200000e+00   3.1439094e+00  -1.7614466e-03  -1.4133677e-03  -5.0009318e-03
   4.8400000e+00   3.1438826e+00  -1.8612717e-03  -1.2443759e-03  -5.0052074e-03
   4.8600000e+00   3.1438590e+00  -1.9610507e-03  -1.0851587e-03  -5.0036271e-03
   4.8800000e+00   3.1438385e+00  -2.0607344e-03  -9.3512963e-04  -4.9968076e-03
   4.9000000e+00   3.1438210e+00  -2.1602736e-03  -7.9370229e-04  -4.9853655e-03
   4.9200000e+00   3.1438063e+00  -2.2596188e-03  -6.6029029e-04  -4.9699172e-03
   4.9400000e+00   3.1437942e+00  -2.3587209e-03  -5.3430723e-04  -4.9510793e-03
   4.9600000e+00   3.1437847e+00  -2.4575304e-03  -4.1516669e-04  -4.9294685e-03
   4.9800000e+00   3.1437777e+00  -2.5559983e-03  -3.0228228e-04  -4.9057013e-03
   5.0000000e+00   3.1437729e+00  -2.6540750e-03  -1.9506761e-04  -4.8803943e-03
   5.0200000e+00   3.1437703e+00  -2.7517114e-03  -9.2936254e-05  -4.8541640e-03
   5.0400000e+00   3.1437698e+00  -2.8488582e-03   4.6981745e-06  -4.8276271e-03
   5.0600000e+00   3.1437711e+00  -2.9454660e-03   9.8422081e-05  -4.8014000e-03
   5.0800000e+00   3.1437742e+00  -3.0414855e-03   1.8882187e-04  -4.7760994e-03
   5.1000000e+00   3.1437790e+00  -3.1368676e-03   2.7648394e-04  -4.7523419e-03
   5.1200000e+00   3.1437856e+00  -3.2321914e-03   3.5556024e-04  -4.7178753e-03
   5.1400000e+00   3.1437940e+00  -3.3274174e-03   4.1869730e-04  -4.6576621e-03
   5.1600000e+00   3.1438037e+00  -3.4215675e-03   4.6422341e-04  -4.5681403e-03
   5.1800000e+00   3.1438142e+00  -3.5136638e-03   4.9046683e-04  -4.4457483e-03
   5.2000000e+00   3.1438249e+00  -3.6027283e-03   4.9575584e-04  -4.2869242e-03
   5.2200000e+00   3.1438353e+00  -3.6877829e-03   4.7841872e-04  -4.0881061e-03
   5.2400000e+00   3.1438448e+00  -3.7678499e-03   4.3678373e-04  -3.8457323e-03
   5.2600000e+00   3.1438529e+00  -3.8419511e-03   3.6917916e-04  -3.5562410e-03
   5.2800000e+00   3.1438590e+00  -3.9091087e-03   2.7393328e-04  -3.2160703e-03
   5.3000000e+00   3.1438627e+00  -3.9683446e-03   1.4937436e-04  -2.8216585e-03
   5.3200000e+00   3.1438634e+00  -4.0186808e-03  -6.1693158e-06  -2.3694437e-03
   5.3400000e+00   3.1438606e+00  -4.0591395e-03  -1.9436948e-04  -1.8558642e-03
   5.3600000e+00   3.1438537e+00  -4.0887427e-03  -4.1689786e-04  -1.2773580e-03
   5.3800000e+00   3.1438421e+00  -4.1065123e-03  -6.7542617e-04  -6.3036345e-04
   5.4000000e+00   3.1438255e+00  -4.1114704e-03  -9.7162614e-04   8.8681306e-05
   5.4200000e+00   3.1438037e+00  -4.1038128e-03  -1.2736947e-03   8.1609760e-04
   5.4400000e+00   3.1437773e+00  -4.0842881e-03  -1.5517613e-03   1.4918884e-03
   5.4600000e+00   3.1437460e+00  -4.0527481e-03  -1.8103966e-03   2.1251381e-03
   5.4800000e+00   3.1437097e+00  -4.0090442e-03  -2.0541711e-03   2.7249308e-03
   5.5000000e+00   3.1436685e+00  -3.9530279e-03  -2.2876553e-03   3.3003509e-03
   5.5200000e+00   3.1436220e+00  -3.8845509e-03  -2.5154198e-03   3.8604828e-03
   5.5400000e+00   3.1435703e+00  -3.8034646e-03  -2.7420352e-03   4.4144106e-03
   5.5600000e+00   3.1435131e+00  -3.7096207e-03  -2.9720720e-03   4.9712187e-03
   5.5800000e+00   3.1434505e+00  -3.6028707e-03  -3.2101008e-03   5.5399914e-03
   5.6000000e+00   3.1433822e+00  -3.4830661e-03  -3.4606922e-03   6.1298129e-03
   5.6200000e+00   3.1433082e+00  -3.3500584e-03  -3.7284167e-03   6.7497676e-03
   5.6400000e+00   3.1432284e+00  -3.2036993e-03  -4.0178448e-03   7.4089397e-03
   5.6600000e+00   3.1431425e+00  -3.0438403e-03  -4.3335472e-03   8.1164136e-03
   5.6800000e+00   3.1430506e+00  -2.8703330e-03  -4.6800944e-03   8.8812734e-03
   5.7000000e+00   3.1429525e+00  -2.6830288e-03  -5.0620569e-03   9.7126036e-03
   5.7200000e+00   3.1428470e+00  -2.4796299e-03  -5.4217310e-03   1.0494093e-02
   5.7400000e+00   3.1427343e+00  -2.2608437e-03  -5.6961589e-03   1.1099115e-02
   5.7600000e+00   3.1426167e+00  -2.0310298e-03  -5.8820300e-03   1.1521284e-02
   5.7800000e+00   3.1424962e+00  -1.7945479e-03  -5.9760337e-03   1.1754214e-02
   5.8000000e+00   3.1423750e+00  -1.5557574e-03  -5.9748595e-03   1.1791516e-02
   5.8200000e+00   3.1422552e+00  -1.3190182e-03  -5.8751967e-03   1.1626805e-02
   5.8400000e+00   3.1421389e+00  -1.0886896e-03  -5.6737347e-03   1.1253694e-02
   5.8600000e+00   3.1420283e+00  -8.6913141e-04  -5.3671631e-03   1.0665797e-02
   5.8800000e+00   3.1419255e+00  -6.6470314e-04  -4.9521711e-03   9.8567254e-03
   5.9000000e+00   3.1418327e+00  -4.7976441e-04  -4.4254482e-03   8.8200940e-03
   5.9200000e+00   3.1417520e+00  -3.1867483e-04  -3.7836838e-03   7.5495157e-03
   5.9400000e+00   3.1416855e+00  -1.8579399e-04  -3.0235674e-03   6.0386039e-03
   5.9600000e+00   3.1416353e+00  -8.5481508e-05  -2.1417884e-03   4.2809718e-03
   5.9800000e+00   3.1416037e+00  -2.2096976e-05  -1.1350361e-03   2.2702327e-03
   6.0000000e+00   3.1415927e+00   0.0000000e+00   0.0000000e+00  -1.7347235e-18
